[
   {
      "do_not_record" : false,
      "description" : "No surprise, the formal rules a project has to live by just for an application proposal is somewhat amazing. FOSS hackers, on the other hand, are used to communicate and adapt to a multitude of programs and systems.  Looking from the right angle, it can be interesting to understand how an EU funded project is supposed to work.\r\n\r\nEven if you don't usually find arbitrary rule systems and their execution interesting you may learn some interesting bits and pieces about how (not) to interact with the EU - should you decide that your project is ready or desperate enough to go that way. Some of these \"bits and pieces\" can take weeks to research and be summarized in 3 minutes.\r\n\r\nWe'll specifically look and discuss how it played out for the NEXTLEAP\r\nproject which aims to research decentralized crypto protocols and\r\ncommunities.  Discussed in the hallways of 31c3 well after midnight it managed to receive 2 Million Euro in funding.\r\n",
      "abstract" : "FOSS and hacker culture meeting the EU buereaucracy.  What can possibly come out of that?  We'll discuss what is involved for FOSS projects and other interested parties to get $$$ funding by the European Union.  Hackers deal with rule systems and their execution.  And the European Union issues a lot of rules which are executed by the \"commission\" and its employees.  Within the Horizon2020 framework programme 80.000.000.000 Euros will be distributed towards research projects across Europe between 2014-2020.  Shouldn't some of that money go to purposes deemed useful by 32c3 attendants?\r\n",
      "guid" : "3101dcca-7460-45e2-bdb1-c9f597eb462e",
      "id" : 7300,
      "logo" : null,
      "track" : "Ethics, Society & Politics",
      "language" : "en",
      "links" : [],
      "title" : "Hacking EU funding for a decentralizing FOSS project",
      "place" : "Hall 6",
      "speakers" : [
         "holger krekel"
      ],
      "recording_license" : "CC-BY-4.0-DE",
      "room" : "Hall 6",
      "type" : "lecture",
      "attachments" : [],
      "duration" : "01:00",
      "subtitle" : "Understanding and adapting EU legal guidelines from a FOSS perspective",
      "persons" : [
         {
            "public_name" : "holger krekel",
            "id" : 5522
         }
      ],
      "start" : "11:30",
      "unix" : 1450871702,
      "slug" : "32c3-7300-hacking_eu_funding_for_a_decentralizing_foss_project",
      "date" : "2015-12-27T11:30:00+01:00"
   },
   {
      "persons" : [
         {
            "public_name" : "Eal",
            "id" : 0,
            "url" : "https://events.ccc.de/congress/2015/wiki/User:Eal"
         },
         {
            "id" : 0,
            "url" : "https://events.ccc.de/congress/2015/wiki/User:Dmaphy",
            "public_name" : "Dmaphy"
         }
      ],
      "start" : "17:00",
      "subtitle" : "",
      "date" : "2015-12-28T17:00:00+01:00",
      "slug" : "",
      "unix" : 1451318400,
      "room" : "Hall A.1",
      "speakers" : [
         "Eal",
         "Dmaphy"
      ],
      "duration" : "1:00",
      "type" : "talk",
      "links" : [
         "https://gnupg.org/",
         "https://events.ccc.de/congress/2015/wiki/Session:An_Advanced_Introduction_to_GnuPG"
      ],
      "language" : "en",
      "place" : "Hall A.1",
      "title" : "An Advanced Introduction to GnuPG",
      "abstract" : "",
      "guid" : "5343fddaeff01c89e5a92d4913645756",
      "description" : "There is more to encryption than generating an OpenPGP key and sending encrypted emails. In this talk, I will provide some tips on how to manage keys, how to improve your confidence that your mail is not being intercepted and some other neat tricks that GnuPG can do.\n\nThis talk is given by Neal Walfield",
      "id" : 1008,
      "logo" : null,
      "track" : "self organized sessions"
   },
   {
      "unix" : 1451408400,
      "slug" : "",
      "date" : "2015-12-29T18:00:00+01:00",
      "subtitle" : "",
      "start" : "18:00",
      "persons" : [
         {
            "public_name" : "Demos",
            "id" : 0,
            "url" : "https://events.ccc.de/congress/2015/wiki/User:Demos"
         }
      ],
      "type" : "meeting",
      "duration" : "1:30",
      "speakers" : [
         "Demos"
      ],
      "room" : "Hall F",
      "title" : "Analysis of the privacy technology landscape",
      "place" : "Hall F",
      "language" : "en",
      "links" : [
         "https://wiki.c3d2.de/EDN",
         "https://events.ccc.de/congress/2015/wiki/Session:Analysis_of_the_privacy_technology_landscape"
      ],
      "id" : 1009,
      "logo" : null,
      "track" : "self organized sessions",
      "description" : "We believe that the current internet stack must be completely revised to establish a secure privacy preserving internet as a space to unfold basic civil rights which are threatened by mass spying. We envision the new stack to be free software, decentralized, distributed, end-to-end-encrypted, with meta-data-protection, easy to use, efficient,  wifi mesh-networking capable and well-documented. \nWe start with a thorough evaluation of existing projects and by building bridges between them to achieve what none of them could do alone.",
      "abstract" : "",
      "guid" : "cb29f4b4e45682993245ff3d24d2390a"
   }
]
